<?xml version="1.0" encoding="UTF-8" standalone="no"?>
<!-- Created with Inkscape (http://www.inkscape.org/) -->

<svg
   xmlns:dc="http://purl.org/dc/elements/1.1/"
   xmlns:cc="http://creativecommons.org/ns#"
   xmlns:rdf="http://www.w3.org/1999/02/22-rdf-syntax-ns#"
   xmlns:svg="http://www.w3.org/2000/svg"
   xmlns="http://www.w3.org/2000/svg"
   xmlns:sodipodi="http://sodipodi.sourceforge.net/DTD/sodipodi-0.dtd"
   xmlns:inkscape="http://www.inkscape.org/namespaces/inkscape"
   width="92.616905mm"
   height="42.751007mm"
   viewBox="0 0 328.17014 151.47995"
   id="svg2"
   version="1.1"
   inkscape:version="0.91 r13725"
   sodipodi:docname="AT-P.svg">
  <defs
     id="defs4">
    <clipPath
       clipPathUnits="userSpaceOnUse"
       id="clipPath4890">
      <path
         d="M 0,0 720,0 720,540 0,540 0,0 Z"
         id="path4892"
         inkscape:connector-curvature="0" />
    </clipPath>
  </defs>
  <sodipodi:namedview
     id="base"
     pagecolor="#ffffff"
     bordercolor="#666666"
     borderopacity="1.0"
     inkscape:pageopacity="0.0"
     inkscape:pageshadow="2"
     inkscape:zoom="1.979899"
     inkscape:cx="104.11466"
     inkscape:cy="104.92084"
     inkscape:document-units="px"
     inkscape:current-layer="layer1"
     showgrid="false"
     fit-margin-top="0"
     fit-margin-left="0"
     fit-margin-right="0"
     fit-margin-bottom="0"
     inkscape:window-width="1920"
     inkscape:window-height="1138"
     inkscape:window-x="-8"
     inkscape:window-y="-8"
     inkscape:window-maximized="1" />
  <metadata
     id="metadata7">
    <rdf:RDF>
      <cc:Work
         rdf:about="">
        <dc:format>image/svg+xml</dc:format>
        <dc:type
           rdf:resource="http://purl.org/dc/dcmitype/StillImage" />
        <dc:title></dc:title>
      </cc:Work>
    </rdf:RDF>
  </metadata>
  <g
     inkscape:label="Layer 1"
     inkscape:groupmode="layer"
     id="layer1"
     transform="translate(-84.486366,-410.90795)">
    <g
       id="g4720"
       transform="matrix(1.25,0,0,-1.25,156.94886,504.10595)">
      <path
         d="M 0,0 -4.164,0 0,-9.669 0,0 Z"
         style="fill:#f1f9f9;fill-opacity:1;fill-rule:evenodd;stroke:none"
         id="path4722"
         inkscape:connector-curvature="0" />
    </g>
    <g
       id="g4724"
       transform="matrix(1.25,0,0,-1.25,157.35999,464.49257)">
      <path
         d="M 0,0 -4.823,0 0,12.97 0,0 Z"
         style="fill:#f1f9f9;fill-opacity:1;fill-rule:evenodd;stroke:none"
         id="path4726"
         inkscape:connector-curvature="0" />
    </g>
    <g
       id="g4728"
       transform="matrix(1.25,0,0,-1.25,133.59361,483.07707)">
      <path
         d="M 0,0 96.286,0"
         style="fill:none;stroke:#bbe0e3;stroke-width:4.5;stroke-linecap:butt;stroke-linejoin:round;stroke-miterlimit:10;stroke-dasharray:none;stroke-opacity:1"
         id="path4730"
         inkscape:connector-curvature="0" />
    </g>
    <path
       d="m 141.70124,470.40245 21.2625,0 0,25.23875 -21.2625,0 0,-25.23875 z"
       style="fill:#f1f9f9;fill-opacity:1;fill-rule:evenodd;stroke:none"
       id="path4732"
       inkscape:connector-curvature="0" />
    <g
       id="g4734"
       transform="matrix(1.25,0,0,-1.25,151.97737,473.78895)">
      <path
         d="M 0,0 -8.987,0 0,9.008 0,0 Z"
         style="fill:#f1f9f9;fill-opacity:1;fill-rule:evenodd;stroke:none"
         id="path4736"
         inkscape:connector-curvature="0" />
    </g>
    <path
       d="m 269.65874,446.81245 12.97375,0 0,69.38 -12.97375,0 0,-69.38 z"
       style="fill:#f1f9f9;fill-opacity:1;fill-rule:evenodd;stroke:none"
       id="path4738"
       inkscape:connector-curvature="0" />
    <g
       id="g4740"
       transform="matrix(1.25,0,0,-1.25,282.63224,452.21957)">
      <path
         d="M 0,0 75.433,0 0,-50.201 0,0 Z"
         style="fill:#f1f9f9;fill-opacity:1;fill-rule:evenodd;stroke:none"
         id="path4742"
         inkscape:connector-curvature="0" />
    </g>
    <path
       d="m 274.95874,412.15745 136.4475,0 0,90.9925 -136.4475,0 0,-90.9925 z"
       style="fill:#f1f9f9;fill-opacity:1;fill-rule:evenodd;stroke:none"
       id="path4744"
       inkscape:connector-curvature="0" />
    <g
       id="g4746"
       transform="matrix(1.25,0,0,-1.25,411.40662,412.15795)">
      <path
         d="M 0,0 -108.638,0"
         style="fill:none;stroke:#bbe0e3;stroke-width:2;stroke-linecap:butt;stroke-linejoin:round;stroke-miterlimit:10;stroke-dasharray:none;stroke-opacity:1"
         id="path4748"
         inkscape:connector-curvature="0" />
    </g>
    <text
       y="442.20694"
       x="322.3205"
       style="font-variant:normal;font-weight:bold;font-stretch:normal;font-size:13.80000019px;font-family:Arial;-inkscape-font-specification:Helvetica-Bold;writing-mode:lr-tb;fill:#000000;fill-opacity:1;fill-rule:nonzero;stroke:none"
       id="text4750">
      <tspan
         x="322.3205 331.46988 339.87408 348.27829 352.18369 360.58789 368.23306"
         y="442.20694"
         sodipodi:role="line"
         id="tspan4752">Engine</tspan>
    </text>
    <g
       id="g4754"
       transform="matrix(1.25,0,0,-1.25,411.40649,501.2552)">
      <path
         d="M 0,0 0,71.049"
         style="fill:none;stroke:#bbe0e3;stroke-width:2;stroke-linecap:butt;stroke-linejoin:round;stroke-miterlimit:10;stroke-dasharray:none;stroke-opacity:1"
         id="path4756"
         inkscape:connector-curvature="0" />
    </g>
    <g
       id="g4758"
       transform="matrix(1.25,0,0,-1.25,304.33749,500.96895)">
      <path
         d="M 0,0 85.655,0"
         style="fill:none;stroke:#bbe0e3;stroke-width:2;stroke-linecap:butt;stroke-linejoin:round;stroke-miterlimit:10;stroke-dasharray:none;stroke-opacity:1"
         id="path4760"
         inkscape:connector-curvature="0" />
    </g>
    <g
       id="g4762"
       transform="matrix(1.25,0,0,-1.25,304.33749,500.96895)">
      <path
         d="M 0,0 -17.364,-11.202"
         style="fill:none;stroke:#bbe0e3;stroke-width:2;stroke-linecap:butt;stroke-linejoin:round;stroke-miterlimit:10;stroke-dasharray:none;stroke-opacity:1"
         id="path4764"
         inkscape:connector-curvature="0" />
    </g>
    <g
       id="g4766"
       transform="matrix(1.25,0,0,-1.25,274.95886,446.6077)">
      <path
         d="M 0,0 0,27.598"
         style="fill:none;stroke:#bbe0e3;stroke-width:2;stroke-linecap:butt;stroke-linejoin:round;stroke-miterlimit:10;stroke-dasharray:none;stroke-opacity:1"
         id="path4768"
         inkscape:connector-curvature="0" />
    </g>
    <g
       id="g4770"
       transform="matrix(1.25,0,0,-1.25,283.09911,515.9947)">
      <path
         d="M 0,0 -10.752,0"
         style="fill:none;stroke:#bbe0e3;stroke-width:2;stroke-linecap:butt;stroke-linejoin:round;stroke-miterlimit:10;stroke-dasharray:none;stroke-opacity:1"
         id="path4772"
         inkscape:connector-curvature="0" />
    </g>
    <g
       id="g4774"
       transform="matrix(1.25,0,0,-1.25,275.08162,445.52145)">
      <path
         d="M 0,0 -4.338,0"
         style="fill:none;stroke:#bbe0e3;stroke-width:2;stroke-linecap:butt;stroke-linejoin:round;stroke-miterlimit:10;stroke-dasharray:none;stroke-opacity:1"
         id="path4776"
         inkscape:connector-curvature="0" />
    </g>
    <path
       d="m 156.80499,449.42245 85.66375,0 0,53.055 -85.66375,0 0,-53.055 z"
       style="fill:#f1f9f9;fill-opacity:1;fill-rule:evenodd;stroke:none"
       id="path4778"
       inkscape:connector-curvature="0" />
    <path
       d="m 156.80499,490.0912 109.2425,0 0,26.10125 -109.2425,0 0,-26.10125 z"
       style="fill:#f1f9f9;fill-opacity:1;fill-rule:evenodd;stroke:none"
       id="path4780"
       inkscape:connector-curvature="0" />
    <path
       d="m 151.56624,462.0487 21.2625,0 0,42.0575 -21.2625,0 0,-42.0575 z"
       style="fill:#f1f9f9;fill-opacity:1;fill-rule:evenodd;stroke:none"
       id="path4782"
       inkscape:connector-curvature="0" />
    <g
       id="g4784"
       transform="matrix(1.25,0,0,-1.25,151.56611,495.64095)">
      <path
         d="M 0,0 -8.658,0 0,-5.738 0,0 Z"
         style="fill:#f1f9f9;fill-opacity:1;fill-rule:evenodd;stroke:none"
         id="path4786"
         inkscape:connector-curvature="0" />
    </g>
    <g
       id="g4788"
       transform="matrix(1.25,0,0,-1.25,244.56361,452.21945)">
      <path
         d="M 0,0 -19.061,0 0,5.359 0,0 Z"
         style="fill:#f1f9f9;fill-opacity:1;fill-rule:evenodd;stroke:none"
         id="path4790"
         inkscape:connector-curvature="0" />
    </g>
    <path
       d="m 241.85374,446.37245 24.19375,0 0,48.05875 -24.19375,0 0,-48.05875 z"
       style="fill:#f1f9f9;fill-opacity:1;fill-rule:evenodd;stroke:none"
       id="path4792"
       inkscape:connector-curvature="0" />
    <g
       id="g4794"
       transform="matrix(1.25,0,0,-1.25,266.01224,445.61145)">
      <path
         d="M 0,0 -19.321,0"
         style="fill:none;stroke:#bbe0e3;stroke-width:2;stroke-linecap:butt;stroke-linejoin:round;stroke-miterlimit:10;stroke-dasharray:none;stroke-opacity:1"
         id="path4796"
         inkscape:connector-curvature="0" />
    </g>
    <g
       id="g4798"
       transform="matrix(1.25,0,0,-1.25,266.04799,515.99482)">
      <path
         d="M 0,0 -87.394,0"
         style="fill:none;stroke:#bbe0e3;stroke-width:2;stroke-linecap:butt;stroke-linejoin:round;stroke-miterlimit:10;stroke-dasharray:none;stroke-opacity:1"
         id="path4800"
         inkscape:connector-curvature="0" />
    </g>
    <g
       id="g4802"
       transform="matrix(1.25,0,0,-1.25,242.46862,445.52145)">
      <path
         d="M 0,0 -14.973,-3.052"
         style="fill:none;stroke:#bbe0e3;stroke-width:2;stroke-linecap:butt;stroke-linejoin:round;stroke-miterlimit:10;stroke-dasharray:none;stroke-opacity:1"
         id="path4804"
         inkscape:connector-curvature="0" />
    </g>
    <g
       id="g4806"
       transform="matrix(1.25,0,0,-1.25,225.37574,449.42207)">
      <path
         d="M 0,0 -54.856,0"
         style="fill:none;stroke:#bbe0e3;stroke-width:2;stroke-linecap:butt;stroke-linejoin:round;stroke-miterlimit:10;stroke-dasharray:none;stroke-opacity:1"
         id="path4808"
         inkscape:connector-curvature="0" />
    </g>
    <g
       id="g4810"
       transform="matrix(1.25,0,0,-1.25,156.80536,516.65257)">
      <path
         d="M 0,0 -4.192,10.809"
         style="fill:none;stroke:#bbe0e3;stroke-width:2;stroke-linecap:butt;stroke-linejoin:round;stroke-miterlimit:10;stroke-dasharray:none;stroke-opacity:1"
         id="path4812"
         inkscape:connector-curvature="0" />
    </g>
    <g
       id="g4814"
       transform="matrix(1.25,0,0,-1.25,269.65862,515.99482)">
      <path
         d="M 0,0 0,56.248"
         style="fill:none;stroke:#bbe0e3;stroke-width:2;stroke-linecap:butt;stroke-linejoin:round;stroke-miterlimit:10;stroke-dasharray:none;stroke-opacity:1"
         id="path4816"
         inkscape:connector-curvature="0" />
    </g>
    <g
       id="g4818"
       transform="matrix(1.25,0,0,-1.25,265.27312,516.22907)">
      <path
         d="M 0,0 0,56.248"
         style="fill:none;stroke:#bbe0e3;stroke-width:2;stroke-linecap:butt;stroke-linejoin:round;stroke-miterlimit:10;stroke-dasharray:none;stroke-opacity:1"
         id="path4820"
         inkscape:connector-curvature="0" />
    </g>
    <text
       y="558.75842"
       x="266.41986"
       style="font-variant:normal;font-weight:bold;font-stretch:normal;font-size:15px;font-family:Arial;-inkscape-font-specification:Helvetica-Bold;writing-mode:lr-tb;fill:#c0c0c0;fill-opacity:1;fill-rule:nonzero;stroke:none"
       id="text4822">
      <tspan
         x="266.41986"
         y="558.75842"
         id="tspan4824">n</tspan>
    </text>
    <text
       y="562.35846"
       x="275.56985"
       style="font-variant:normal;font-weight:bold;font-stretch:normal;font-size:10.05000019px;font-family:Arial;-inkscape-font-specification:Helvetica-Bold;writing-mode:lr-tb;fill:#c0c0c0;fill-opacity:1;fill-rule:nonzero;stroke:none"
       id="text4826">
      <tspan
         x="275.56985 278.42407"
         y="562.35846"
         sodipodi:role="line"
         id="tspan4828">in</tspan>
    </text>
    <text
       y="558.75842"
       x="284.56985"
       style="font-variant:normal;font-weight:bold;font-stretch:normal;font-size:15px;font-family:Arial;-inkscape-font-specification:Helvetica-Bold;writing-mode:lr-tb;fill:#c0c0c0;fill-opacity:1;fill-rule:nonzero;stroke:none"
       id="text4830">
      <tspan
         x="284.56985 288.76987"
         y="558.75842"
         sodipodi:role="line"
         id="tspan4832">,</tspan>
    </text>
    <text
       y="558.75842"
       x="292.96985"
       style="font-variant:normal;font-weight:bold;font-stretch:normal;font-size:15px;font-family:Calibri;-inkscape-font-specification:Calibri-Bold;writing-mode:lr-tb;fill:#c0c0c0;fill-opacity:1;fill-rule:nonzero;stroke:none"
       id="text4834">
      <tspan
         x="292.96985"
         y="558.75842"
         id="tspan4836">T</tspan>
    </text>
    <text
       y="562.35846"
       x="300.46985"
       style="font-variant:normal;font-weight:bold;font-stretch:normal;font-size:10.05000019px;font-family:Calibri;-inkscape-font-specification:Calibri-Bold;writing-mode:lr-tb;fill:#c0c0c0;fill-opacity:1;fill-rule:nonzero;stroke:none"
       id="text4838">
      <tspan
         x="300.46985 302.8718"
         y="562.35846"
         sodipodi:role="line"
         id="tspan4840">in</tspan>
    </text>
    <text
       y="557.58594"
       x="83.424355"
       style="font-variant:normal;font-weight:bold;font-stretch:normal;font-size:15px;font-family:Arial;-inkscape-font-specification:Helvetica-Bold;writing-mode:lr-tb;fill:#222268;fill-opacity:1;fill-rule:nonzero;stroke:none"
       id="text4842">
      <tspan
         x="83.424355"
         y="557.58594"
         id="tspan4844">n</tspan>
    </text>
    <text
       y="561.18597"
       x="92.574356"
       style="font-variant:normal;font-weight:bold;font-stretch:normal;font-size:10.05000019px;font-family:Arial;-inkscape-font-specification:Helvetica-Bold;writing-mode:lr-tb;fill:#222268;fill-opacity:1;fill-rule:nonzero;stroke:none"
       id="text4846">
      <tspan
         x="92.574356 98.72496 104.87556"
         y="561.18597"
         sodipodi:role="line"
         id="tspan4848">out</tspan>
    </text>
    <text
       y="557.58594"
       x="108.17435"
       style="font-variant:normal;font-weight:bold;font-stretch:normal;font-size:15px;font-family:Arial;-inkscape-font-specification:Helvetica-Bold;writing-mode:lr-tb;fill:#222268;fill-opacity:1;fill-rule:nonzero;stroke:none"
       id="text4850">
      <tspan
         x="108.17435 112.37436"
         y="557.58594"
         sodipodi:role="line"
         id="tspan4852">,</tspan>
    </text>
    <text
       y="557.58594"
       x="116.57436"
       style="font-variant:normal;font-weight:bold;font-stretch:normal;font-size:15px;font-family:Calibri;-inkscape-font-specification:Calibri-Bold;writing-mode:lr-tb;fill:#222268;fill-opacity:1;fill-rule:nonzero;stroke:none"
       id="text4854">
      <tspan
         x="116.57436"
         y="557.58594"
         id="tspan4856">T</tspan>
    </text>
    <text
       y="561.18597"
       x="122.72436"
       style="font-variant:normal;font-weight:bold;font-stretch:normal;font-size:10.05000019px;font-family:Calibri;-inkscape-font-specification:Calibri-Bold;writing-mode:lr-tb;fill:#222268;fill-opacity:1;fill-rule:nonzero;stroke:none"
       id="text4858">
      <tspan
         x="122.72436 128.1212 133.51805"
         y="561.18597"
         sodipodi:role="line"
         id="tspan4860">out</tspan>
    </text>
    <g
       id="g4862"
       transform="matrix(1.25,0,0,-1.25,109.14261,540.50845)">
      <path
         d="M 0,0 11.714,40.334"
         style="fill:none;stroke:#000000;stroke-width:1;stroke-linecap:butt;stroke-linejoin:round;stroke-miterlimit:10;stroke-dasharray:none;stroke-opacity:1"
         id="path4864"
         inkscape:connector-curvature="0" />
    </g>
    <g
       id="g4866"
       transform="matrix(1.25,0,0,-1.25,282.68149,542.38345)">
      <path
         d="M 0,0 -9.799,41.834"
         style="fill:none;stroke:#000000;stroke-width:1;stroke-linecap:butt;stroke-linejoin:round;stroke-miterlimit:10;stroke-dasharray:none;stroke-opacity:1"
         id="path4868"
         inkscape:connector-curvature="0" />
    </g>
    <g
       id="g4870"
       transform="matrix(1.25,0,0,-1.25,140.74349,495.64082)">
      <path
         d="M 0,0 0,19.233"
         style="fill:none;stroke:#bbe0e3;stroke-width:2;stroke-linecap:butt;stroke-linejoin:round;stroke-miterlimit:10;stroke-dasharray:none;stroke-opacity:1"
         id="path4872"
         inkscape:connector-curvature="0" />
    </g>
    <g
       id="g4874"
       transform="matrix(1.25,0,0,-1.25,140.74349,471.5997)">
      <path
         d="M 0,0 8.658,7.49"
         style="fill:none;stroke:#bbe0e3;stroke-width:2;stroke-linecap:butt;stroke-linejoin:round;stroke-miterlimit:10;stroke-dasharray:none;stroke-opacity:1"
         id="path4876"
         inkscape:connector-curvature="0" />
    </g>
    <g
       id="g4878"
       transform="matrix(1.25,0,0,-1.25,151.56586,503.25645)">
      <path
         d="M 0,0 -8.658,6.092"
         style="fill:none;stroke:#bbe0e3;stroke-width:2;stroke-linecap:butt;stroke-linejoin:round;stroke-miterlimit:10;stroke-dasharray:none;stroke-opacity:1"
         id="path4880"
         inkscape:connector-curvature="0" />
    </g>
    <g
       id="g4882"
       transform="matrix(1.25,0,0,-1.25,151.97749,462.52895)">
      <path
         d="M 0,0 3.862,10.95"
         style="fill:none;stroke:#bbe0e3;stroke-width:2;stroke-linecap:butt;stroke-linejoin:round;stroke-miterlimit:10;stroke-dasharray:none;stroke-opacity:1"
         id="path4884"
         inkscape:connector-curvature="0" />
    </g>
    <g
       transform="matrix(1.25,0,0,-1.25,-70.473761,664.5612)"
       id="g4886">
      <g
         id="g4888"
         clip-path="url(#clipPath4890)">
        <g
           id="g4894"
           transform="translate(227.1682,169.1612)">
          <path
             d="m 0,0 c 4.914,0 8.897,-3.983 8.897,-8.897 l 0,-30.434 c 0,-4.913 -3.983,-8.897 -8.897,-8.897 l -6.337,0 c -4.914,0 -8.897,3.984 -8.897,8.897 l 0,30.434 c 0,4.914 3.983,8.897 8.897,8.897 L 0,0 Z"
             style="fill:#990000;fill-opacity:1;fill-rule:evenodd;stroke:#000000;stroke-width:1.5;stroke-linecap:butt;stroke-linejoin:round;stroke-miterlimit:10;stroke-dasharray:none;stroke-opacity:1"
             id="path4896"
             inkscape:connector-curvature="0" />
        </g>
      </g>
    </g>
    <text
       y="488.05832"
       x="200.54436"
       style="font-variant:normal;font-weight:bold;font-stretch:normal;font-size:13.80000019px;font-family:Arial;-inkscape-font-specification:Helvetica-Bold;writing-mode:lr-tb;fill:#ffffff;fill-opacity:1;fill-rule:nonzero;stroke:none"
       id="text4898">
      <tspan
         x="200.54436 208.79675 218.69136"
         y="488.05832"
         sodipodi:role="line"
         id="tspan4900">TC</tspan>
    </text>
    <g
       id="g4902"
       transform="matrix(1.25,0,0,-1.25,276.12136,483.5007)">
      <path
         d="M 0,0 -15.352,0"
         style="fill:none;stroke:#000000;stroke-width:1;stroke-linecap:butt;stroke-linejoin:round;stroke-miterlimit:10;stroke-dasharray:none;stroke-opacity:1"
         id="path4904"
         inkscape:connector-curvature="0" />
    </g>
    <g
       id="g4906"
       transform="matrix(1.25,0,0,-1.25,264.43149,479.12532)">
      <path
         d="M 0,0 -6,-3.5 0,-7"
         style="fill:none;stroke:#000000;stroke-width:1;stroke-linecap:round;stroke-linejoin:miter;stroke-miterlimit:10;stroke-dasharray:none;stroke-opacity:1"
         id="path4908"
         inkscape:connector-curvature="0" />
    </g>
    <g
       id="g4910"
       transform="matrix(1.25,0,0,-1.25,127.59974,483.62032)">
      <path
         d="M 0,0 -15.352,0"
         style="fill:none;stroke:#000000;stroke-width:1;stroke-linecap:butt;stroke-linejoin:round;stroke-miterlimit:10;stroke-dasharray:none;stroke-opacity:1"
         id="path4912"
         inkscape:connector-curvature="0" />
    </g>
    <g
       id="g4914"
       transform="matrix(1.25,0,0,-1.25,115.90986,479.24507)">
      <path
         d="M 0,0 -6,-3.5 0,-7"
         style="fill:none;stroke:#000000;stroke-width:1;stroke-linecap:round;stroke-linejoin:miter;stroke-miterlimit:10;stroke-dasharray:none;stroke-opacity:1"
         id="path4916"
         inkscape:connector-curvature="0" />
    </g>
  </g>
</svg>
