1,1,4,8
a,1,8,16
3,1,12,24
4,1,16,32
5,1,20,40
1,2,16,64
2,2,32,128
3,2,48,192
4,2,64,256
5,2,80,320
1,3,4,8
2,3,8,16
3,3,12,24
4,3,16,32
5,3,20,40
1,4,16,64
2,4,32,128
3,4,48,192
4,4,64,256
5,4,80,320